{
  "vpc-provider:account=118170618964:filter.tag:Name=fusion-dev:region=us-west-2:returnAsymmetricSubnets=true": {
    "vpcId": "vpc-0be1a9078e94b722e",
    "vpcCidrBlock": "10.159.0.0/16",
    "availabilityZones": [],
    "subnetGroups": [
      {
        "name": "public",
        "type": "Public",
        "subnets": [
          {
            "subnetId": "subnet-0c42bd1a7d92a04da",
            "cidr": "10.159.0.0/24",
            "availabilityZone": "us-west-2a",
            "routeTableId": "rtb-09fb081bbaad0a6af"
          },
          {
            "subnetId": "subnet-0c54a7e43ade45519",
            "cidr": "10.159.1.0/24",
            "availabilityZone": "us-west-2b",
            "routeTableId": "rtb-0d9df02f32ffba2d7"
          },
          {
            "subnetId": "subnet-05cf09d54c4013df9",
            "cidr": "10.159.2.0/24",
            "availabilityZone": "us-west-2c",
            "routeTableId": "rtb-0905f3de19a2a4e20"
          }
        ]
      },
      {
        "name": "private",
        "type": "Private",
        "subnets": [
          {
            "subnetId": "subnet-0f1014d1a54c1ec98",
            "cidr": "10.159.3.0/24",
            "availabilityZone": "us-west-2a",
            "routeTableId": "rtb-07ad5a381a9958b70"
          },
          {
            "subnetId": "subnet-062d5b3a1727b49d5",
            "cidr": "10.159.4.0/24",
            "availabilityZone": "us-west-2b",
            "routeTableId": "rtb-0c2fc03c3816d88c8"
          },
          {
            "subnetId": "subnet-02d2ce48fa659b1f1",
            "cidr": "10.159.5.0/24",
            "availabilityZone": "us-west-2c",
            "routeTableId": "rtb-0bdec8ccfc0b623dd"
          }
        ]
      }
    ]
  }
}
